<?xml version="1.0" encoding="utf-8"?>
<!-- Generator: $$$/GeneralStr/196=Adobe Illustrator 27.6.0, SVG Export Plug-In . SVG Version: 6.00 Build 0)  -->
<svg version="1.1" id="Ebene_1" xmlns="http://www.w3.org/2000/svg" xmlns:xlink="http://www.w3.org/1999/xlink" x="0px" y="0px"
	 viewBox="0 0 100 100" style="enable-background:new 0 0 100 100;" xml:space="preserve">
<style type="text/css">
	.st0{fill:#5E5E5E;}
</style>
<path class="st0" d="M82.3,52.8c-2.5-6.5-5.9-12.5-9.6-18.3C68,27.3,63,20.3,58.3,13.2C55.9,9.5,53.7,5.7,51.4,2
	c-0.3-0.4-0.9-0.9-1.3-0.9c0,0,0,0,0,0c-0.5,0-1.2,0.5-1.5,1c-1.5,2.4-2.9,5-4.5,7.4C38.6,17.7,33,25.8,27.6,34
	c-3.8,5.9-7.3,12-9.8,18.6c-1.5,3.8-2.6,7.7-2.6,11.8c0.1,6.5,1.8,12.5,5.3,18c5.8,9.1,14,14.5,24.7,16.1c1,0.1,1.9,0.3,2.9,0.4h3.8
	c0.1,0,0.2,0,0.2,0c7.9-0.4,15-3.5,20.4-8.3c2.2-1.9,4.2-4.1,6-6.7c3.4-4.9,5.4-10.4,6.1-16.3C85.2,62.5,84.1,57.6,82.3,52.8z
	 M30.1,35.6c3.2-4.9,6.5-9.8,9.7-14.5c2.2-3.3,4.5-6.6,6.7-10c1-1.4,1.8-2.9,2.7-4.3c0.3-0.5,0.5-0.9,0.8-1.4
	c0.5,0.9,1.1,1.8,1.6,2.6c1.3,2.2,2.7,4.5,4.2,6.8c2.1,3.2,4.3,6.4,6.4,9.6c2.6,3.8,5.3,7.8,7.9,11.8c3.2,4.9,5.7,9.5,7.7,13.9H22.1
	C24.1,45.5,26.7,40.8,30.1,35.6L30.1,35.6z"/>
</svg>
