<?xml version="1.0" encoding="UTF-8"?>
<!DOCTYPE svg PUBLIC "-//W3C//DTD SVG 1.1//EN" "http://www.w3.org/Graphics/SVG/1.1/DTD/svg11.dtd">
<svg xmlns="http://www.w3.org/2000/svg" version="1.1" width="576px" height="512px" style="shape-rendering:geometricPrecision; text-rendering:geometricPrecision; image-rendering:optimizeQuality; fill-rule:evenodd; clip-rule:evenodd" xmlns:xlink="http://www.w3.org/1999/xlink">
<g><path style="opacity:0.983" fill="#5E5E5E" d="M 575.5,263.5 C 575.5,268.833 575.5,274.167 575.5,279.5C 568.564,297.891 555.231,305.724 535.5,303C 514.931,297.961 495.764,289.794 478,278.5C 418.612,310.317 358.612,311.65 298,282.5C 297.753,287.502 295.586,291.335 291.5,294C 277.226,295.43 262.892,295.93 248.5,295.5C 248.5,297.5 248.5,299.5 248.5,301.5C 261.504,301.333 274.504,301.5 287.5,302C 291.965,302.313 295.132,304.479 297,308.5C 297.333,323.167 297.667,337.833 298,352.5C 312.335,361.752 327.502,369.586 343.5,376C 373.908,386.228 403.908,384.895 433.5,372C 445.156,366.174 456.49,359.84 467.5,353C 477.09,350.516 486.423,351.182 495.5,355C 515,370.75 537,381.75 561.5,388C 568.351,393.005 573.018,399.505 575.5,407.5C 575.5,412.833 575.5,418.167 575.5,423.5C 568.564,441.891 555.231,449.724 535.5,447C 514.931,441.961 495.764,433.794 478,422.5C 418.612,454.317 358.612,455.65 298,426.5C 297.667,435.5 297.333,444.5 297,453.5C 295.669,467.326 290.169,479.159 280.5,489C 275.414,492.709 269.747,495.042 263.5,496C 235.167,496.667 206.833,496.667 178.5,496C 164.49,493.659 154.99,485.825 150,472.5C 146.217,462.528 144.05,452.195 143.5,441.5C 127.486,436.72 112.153,430.387 97.5,422.5C 79.4761,433.676 60.1427,441.843 39.5,447C 19.4467,450.153 6.11335,442.32 -0.5,423.5C -0.5,418.167 -0.5,412.833 -0.5,407.5C 2.36314,398.796 7.69647,391.963 15.5,387C 39.3233,381.088 60.6566,370.422 79.5,355C 89.3572,350.759 99.3572,350.426 109.5,354C 120.314,361.741 131.98,367.907 144.5,372.5C 144.833,347.491 144.5,322.491 143.5,297.5C 127.486,292.72 112.153,286.387 97.5,278.5C 79.4761,289.676 60.1427,297.843 39.5,303C 19.4467,306.153 6.11335,298.32 -0.5,279.5C -0.5,274.167 -0.5,268.833 -0.5,263.5C 2.36314,254.796 7.69647,247.963 15.5,243C 39.3233,237.088 60.6566,226.422 79.5,211C 89.3572,206.759 99.3572,206.426 109.5,210C 120.314,217.741 131.98,223.907 144.5,228.5C 144.333,171.499 144.5,114.499 145,57.5C 146.331,43.6741 151.831,31.8407 161.5,22C 166.586,18.2915 172.253,15.9581 178.5,15C 206.833,14.3333 235.167,14.3333 263.5,15C 277.51,17.3414 287.01,25.1747 292,38.5C 294.76,44.5409 296.427,50.8742 297,57.5C 297.667,77.1667 297.667,96.8333 297,116.5C 295.132,120.521 291.965,122.687 287.5,123C 274.833,123.333 262.167,123.667 249.5,124C 248.594,125.699 248.261,127.533 248.5,129.5C 261.504,129.333 274.504,129.5 287.5,130C 292.105,130.715 295.271,133.215 297,137.5C 297.667,159.167 297.667,180.833 297,202.5C 296.215,204.286 295.049,205.786 293.5,207C 297.581,208.471 301.581,210.138 305.5,212C 345.281,241.078 387.948,246.411 433.5,228C 445.156,222.174 456.49,215.84 467.5,209C 477.09,206.516 486.423,207.182 495.5,211C 515,226.75 537,237.75 561.5,244C 568.351,249.005 573.018,255.505 575.5,263.5 Z M 248.5,209.5 C 256.84,209.334 265.173,209.5 273.5,210C 270.567,211.271 267.901,212.938 265.5,215C 259.843,215.499 254.176,215.666 248.5,215.5C 248.5,213.5 248.5,211.5 248.5,209.5 Z"/></g>
<g><path style="opacity:1" fill="#fefefe" d="M 177.5,25.5 C 206.502,25.3334 235.502,25.5 264.5,26C 271.479,27.9076 276.645,32.0743 280,38.5C 282.964,43.4667 284.964,48.8 286,54.5C 287.377,73.8025 287.877,93.1358 287.5,112.5C 273.163,112.333 258.829,112.5 244.5,113C 242.714,113.785 241.214,114.951 240,116.5C 236.672,123.184 236.672,129.851 240,136.5C 241.214,138.049 242.714,139.215 244.5,140C 258.829,140.5 273.163,140.667 287.5,140.5C 287.5,159.833 287.5,179.167 287.5,198.5C 273.163,198.333 258.829,198.5 244.5,199C 242.714,199.785 241.214,200.951 240,202.5C 236.667,209.167 236.667,215.833 240,222.5C 241.214,224.049 242.714,225.215 244.5,226C 258.829,226.5 273.163,226.667 287.5,226.5C 287.5,245.833 287.5,265.167 287.5,284.5C 273.163,284.333 258.829,284.5 244.5,285C 242.714,285.785 241.214,286.951 240,288.5C 236.667,295.167 236.667,301.833 240,308.5C 241.214,310.049 242.714,311.215 244.5,312C 258.829,312.5 273.163,312.667 287.5,312.5C 287.5,331.833 287.5,351.167 287.5,370.5C 273.163,370.333 258.829,370.5 244.5,371C 239.447,373.988 237.114,378.488 237.5,384.5C 238.02,387.912 238.853,391.245 240,394.5C 241.214,396.049 242.714,397.215 244.5,398C 258.829,398.5 273.163,398.667 287.5,398.5C 287.877,417.864 287.377,437.198 286,456.5C 284.022,466.792 279.189,475.459 271.5,482.5C 269.333,483.792 267,484.625 264.5,485C 235.5,485.667 206.5,485.667 177.5,485C 173.363,484.349 169.863,482.515 167,479.5C 159.191,470.325 155.191,459.658 155,447.5C 154.333,319.5 154.333,191.5 155,63.5C 155.741,50.2747 160.575,38.7747 169.5,29C 172.158,27.522 174.825,26.3554 177.5,25.5 Z"/></g>
</svg>
